{
  "posts": [
    { "id": 1, "title": "json-server", "author": "typicode" }
  ],
  "comments": [
    { "id": 1, "body": "some comment", "postId": 1 }
  ],
  "users": [{
    "id": "1",
    "name": "Власов Александр Сергеевич",
    "balance": 500,
    "roles": ["USER"]
  }],
  "products": [{
    "id": 1,
    "name": "Product name 1",
    "description": "Lorem ipsum dolor sit amet, consectetur adipisicing elit. Asperiores cupiditate ducimus ea ex ipsum magni quam sed similique sint. Dolor sed, sit. Atque, deleniti dolore inventore maiores placeat ratione vel!",
    "cost": 250,
    "params":
      {
        "param1": "value1",
        "param2": "value2"
      }
  },{
    "id": 2,
    "name": "Product name 2",
    "description": "Lorem ipsum dolor sit amet, consectetur adipisicing elit. Asperiores cupiditate ducimus ea ex ipsum magni quam sed similique sint. Dolor sed, sit. Atque, deleniti dolore inventore maiores placeat ratione vel!",
    "cost": 350,
    "params":
    {
      "param1": "value1",
      "param2": "value2"
    }
  }],
  "profile": { "name": "typicode" },
  "currentUser": {
    "id": "1",
    "name": "Власов Александр Сергеевич",
    "balance": 500,
    "roles": ["USER"]
  }
}
